…
``` r
forlooppivot <- df_forloop |>
  pivot_longer(cols = everything(), names_to = "type", values_to = "power")
forlooppivot
```

```
## # A tibble: 800 x 2
##    type    power
##    <chr>   <dbl>
##  1 A       9972.
##  2 B      60072.
##  3 C      35306.
##  4 New     4944.
##  5 A      32657.
##  6 B     152613.
##  7 C      91576.
##  8 New    15801.
##  9 A     247277.
## 10 B     613249.
## # i 790 more rows
```

``` r
pmappivot <- df_pmap |>
  pivot_longer(cols = everything(), names_to = "type", values_to = "power")
pmappivot
```

```
## # A tibble: 800 x 2
##    type    power
##    <chr>   <dbl>
##  1 A       9972.
##  2 B      60072.
##  3 C      35306.
##  4 New     4944.
##  5 A      32657.
##  6 B     152613.
##  7 C      91576.
##  8 New    15801.
##  9 A     247277.
## 10 B     613249.
## # i 790 more rows
```
…
